Name,Phone,Email,URL
Cirrus Systems3CX Gold Partner,+1 251-661-2118,cirrusshare@cirrus-systems.net,https://cirrus-systems.net
"Business Information Solutions, Inc.3CX Silver Partner",+1 251-405-2555,plong@askbis.com,https://www.askbis.com
BWS Technologies3CX Silver Partner,+1 334-358-6305,info@bwsit.com,http://www.bwsit.com
Integrated Communication Solutions Inc.3CX Silver Partner,+1 205-773-2183,darrellreaves@ipdvv.com,http://www.ipdvv.com
Network Solutions Inc3CX Silver Partner,+1 256-547-6817,debbie@netsolinc.com,http://www.netsolinc.com
TailWinds Technologies3CX Silver Partner,+1 205-332-1600,daniel@tailwindstech.com,http://www.tailwindstech.com
Alaska Technical Solutions3CX Gold Partner,+1 907-723-9199,will@alaskatechguys.com,http://www.alaskatechguys.com
Hansen Gress Corporation3CX Silver Partner,+1 907-321-2554,jeremy@hansengress.com,http://hansengress.com
Grand Canyon Business Solutions3CX Platinum Partner,+1 480-278-8392,ZDumas@gcbscorp.com,http://www.copiersphoenix.com
Sunstate Technology Group3CX Platinum Partner,+1 888-368-2024,sales@sunstatetech.com,http://www.sunstatetech.com
Fruth Group3CX Gold Partner,+1 602-414-9600,jboffo@fruthgroup.com,http://www.fruthgroup.com
1701 LLC3CX Silver Partner,+1 520-829-0040,sales@1701solutions.com,http://www.1701solutions.com
"cloudIT, LLC3CX Silver Partner",+1 602-875-5400,info@cloudit.co,https://www.cloudit.co
Cortel Communications LLC3CX Silver Partner,+1 602-757-3877,chris@cortelcom.com,http://www.cortelcom.com
Infinity Solutions3CX Silver Partner,+1 602-625-3027,jared@infinitysol.com,http://www.infinitysol.com
Insight3CX Silver Partner,+1 800-467-4448,greig.larsen@insight.com,http://www.insight.com/en_US/home.html
MerIT Technology Partners3CX Silver Partner,+1 928-284-9900,pgiovanni@merittp.com,http://www.merittp.com
Computer Care Professionals3CX Bronze Partner,+1 308-832-4911,ccpst@ccp.care,http://www.ccp.care
GP VOICE3CX Bronze Partner,+1 480-346-3430,myarbrough@gpvoice.com,http://www.gpvoice.com
Intelus Technology Group3CX Bronze Partner,+1 520-790-0279,jperman@intelusgroup.com,https://intelusgroup.com
Palo Verde Communications3CX Bronze Partner,+1 520-777-3211,andrew.kurtz@520pvc.com,http://www.520pvc.com
Pelstar3CX Bronze Partner,+1 520-334-8405,mike@pelstar.com,http://pelstar.com
Precise Network Services3CX Bronze Partner,+1 928-226-7147,chackney@precisenets.com,http://www.precisenets.com
Southwest Voip3CX Bronze Partner,+1 480-306-0260,jlehr@southwestvoip.com,http://www.southwestvoip.com
Envision Technologies3CX Gold Partner,+1 479-484-1700,matt@envisioncomputer.net,http://www.envisionhelp.com
Network Services group3CX Gold Partner,+1 501-758-6058,rflynn@nsgdv.com,http://www.nsgdv.com
"Outlaw Communications, LLC dba Patriot Voip3CX Silver Partner",+1 870-619-4055,richard@outlawcom.net,http://www.patriotvoip.net
PCA Technology Solutions3CX Silver Partner,+1 501-907-4722,tfry@pcassistance.com,http://www.pcatechsolutions.com/
Quintergy3CX Silver Partner,+1 870-698-1653,brandon@quintergy.com,http://www.quintergy.com
ArTech PC3CX Bronze Partner,+1 479-636-9395,jason@artechpc.com,http://www.artechpc.com
Cobalt IT Inc.3CX Platinum Partner,+1 650-226-5050,3cx@cobalt-it.com,http://www.cobalt-it.com
"Far West Technologies, LLC.3CX Platinum Partner",+1 949-224-1970,leads@farwestech.com,http://www.farwestech.com
Micro Trends3CX Platinum Partner,+1 626-432-5990,rick@micro-trends.com,http://www.micro-trends.com/3cx
Spectrum Digital3CX Platinum Partner,+1 626-765-7526,josiah@onestop.expert,http://onestop.expert/
"Computer Help L.A., Inc.3CX Gold Partner",+1 310-893-0878,sales@computerhelpla.com,http://www.computerhelpla.com
Computer Linx3CX Gold Partner,+1 661-333-6311,jmontoya@computerlinx.com,http://www.computerlinx.com
Contoured Solutions3CX Gold Partner,+1 909-992-0330,ejimenez@contouredsolutions.com,http://www.contouredsolutions.com
"Natural Networks, Inc.3CX Gold Partner",+1 619-222-3232,sales@naturalnetworks.com,http://www.naturalnetworks.com
Rock Solid Technology Solutions3CX Gold Partner,+1 800-608-4693,sales@rstechnology.net,http://www.rstechnology.net
TeamLogic IT of Mission Viejo3CX Gold Partner,+1 949-784-0377,kcowan@teamlogicit.com,http://www.teamlogicit.com/mv
Technijian3CX Gold Partner,+1 949-379-8499,rjain@technijian.com,http://www.technijian.com
"The Tech Consultants, LLC3CX Gold Partner",+1 818-225-5000,voipsupport@thetechconsultants.com,http://www.thetechconsultants.com
"VTech Support, Inc.3CX Gold Partner",+1 661-578-5566,kmeeks@vtechsupport.com,http://www.vtechsupport.com
West Coast Networking Inc3CX Gold Partner,+1 760-674-9970,nick@wcninc.com,http://www.wcninc.com
7 Circuits3CX Silver Partner,+1 949-490-7340,ss@7circuits.com,https://www.7circuits.com
"Advent Technologies, Inc.3CX Silver Partner",+1 916-476-2992,sales@adventtechnologies.net,http://www.adventtechnologies.net
"Attentive IT, Inc.3CX Silver Partner",+1 818-697-8018,gmarconet@marconet.net,http://www.attentiveit.com
CBT Inc.3CX Silver Partner,+1 760-934-4382,chris@mammothit.com,http://www.mammothit.com
Digital Future3CX Silver Partner,+1 949-328-7711,kevin.johnson@digitalfuture.us.com,http://www.digitalfuture.us.com
EmFusion Technologies3CX Silver Partner,+1 909-263-8388,etang@emfusion.net,http://3cx.emfusion.net/
Enteracloud Inc.3CX Silver Partner,+1 858-433-8659,support@enteracloud.com,http://www.enteracloud.com
GNT Solutions3CX Silver Partner,+1 916-830-9400,sales@gntsolutions.com,https://gntsolutions.com
Left Click Here3CX Silver Partner,+1 714-202-9306,adam@leftclickhere.com,http://3CXTelephoneSystem.com
M-Theory Consulting Group3CX Silver Partner,+1 213-785-8058,hd@m-theorygrp.com,http://www.m-theorygrp.com
"Metro Networks, LLC3CX Silver Partner",+1 559-492-5985,rauld@metronetllc.com,http://www.metronetworksllc.com
MRGS3CX Silver Partner,+1 715-222-5632,nickm@mrg.com,
NetServ3CX Silver Partner,+1 714-979-9777,keithm@issnetserv.com,http://www.issnetserv.com
Orange Crew3CX Silver Partner,+1 714-202-8600,Laith.Pahlawan@theorangecrew.net,http://www.theorangecrew.net
People 1st3CX Silver Partner,+1 415-762-4983,matt@people1st.com,http://www.people1st.com
Remote Techs3CX Silver Partner,+1 626-398-4004,darin@remotetechs.com,http://www.remotetechs.com
RingVantage3CX Silver Partner,+1 747-777-8737,david@ringvantage.com,http://www.RingVantage.com
Sharp Business Systems-SF3CX Silver Partner,+1 925-931-4924,Jeremy.Meidberg@sharpusa.com,http://www.sharpusa.com
Siptivate LLC3CX Silver Partner,+1 800-691-2358,jmeyers@siptivate.com,http://www.siptivate.com
SiteTurn Networks3CX Silver Partner,+1 800-556-2127,voip-sales@siteturn.com,http://siteturn.com
SmarterSolutions3CX Silver Partner,+1 619-501-0900,sanehpal@gotoss.com,http://www.gotoss.com
"The Network Pro, LLC3CX Silver Partner",+1 714-333-9620,info@thenetworkpro.net,http://www.thenetworkpro.net
"Wavelength Datacom, Inc3CX Silver Partner",+1 408-746-0200,ian@wavdata.com,http://www.wavdata.com
WESTEL3CX Silver Partner,+1 530-897-0200,mike@westelcommunications.com,http://www.westelcommunications.com
Wired Media Solutions3CX Silver Partner,+1 714-916-9720,info@wiredms.com,http://www.wiredms.com
Xtechs.Support3CX Silver Partner,+1 916-877-8765,nik@xtechs.support,https://xtechs.support
"YanceyWorks, LLC3CX Silver Partner",+1 916-890-1000,3cx@yanceyworks.com,https://yanceyworks.com
Adept Communications3CX Bronze Partner,+1 760-989-0282,joshh@adeptcomm.com,http://www.adeptcomm.com
Advanced Network Solutions (Network Associates)3CX Bronze Partner,+1 661-636-0290,3cx@netassc.com,http://www.advnetsol.com
AMC Solutions3CX Bronze Partner,+1 909-592-0222,sales@amcsolutions.net,http://www.amcsolutions.com
Blue Chip Computer System3CX Bronze Partner,+1 800-325-9868,ron@bccs.com,http://www.saveontelco.com
Comp Tech Services3CX Bronze Partner,+1 866-688-8626,sprice@calloncts.com,http://www.calloncts.com
Digital I/O LLC3CX Bronze Partner,+1 619-423-4433 ext.,ttolman@digitalio.com,http://www.digitalio.com
eSudo Technology Solutions3CX Bronze Partner,+1 408-216-5800,sales@esudo.com,http://www.esudo.com
HomeWyrks3CX Bronze Partner,+1 858-344-7912,mrusso@homewyrks.com,http://www.homewyrks.com
Hyatt Networks3CX Bronze Partner,+1 530-751-5292,phyatt@hyattnetworks.com,http://www.hyattnetworks.com
Intnet Inc3CX Bronze Partner,+1 626-281-4882,donny@intnetinc.com,http://www.intnetinc.com
IT Meristem3CX Bronze Partner,+1 714-694-2897,sales@itmeristem.com,http://itmeristem.com
NetFormance3CX Bronze Partner,+1 619-540-3507,bsterck@netformance.com,http://www.netformance.com
Network Technologies3CX Bronze Partner,+1 530-644-8602,rob@networktechnologies.biz,https://networktechnologies.biz
Novani LLC3CX Bronze Partner,+1 415-731-1111,jyen@novani.com,http://www.novani.com
Relion Support Inc.3CX Bronze Partner,+1 323-800-1002,brian@thinkrelion.com,https://www.thinkrelion.com
Resource Computer Solutions3CX Bronze Partner,+1 909-949-9159,mattp@resourcecomputer.com,http://www.ResourceComputer.com
San Diego Computer Consulting3CX Bronze Partner,+1 858-274-7070,kent@sandiegocomputer.com,http://www.sandiegocomputer.com
South Bay Communications3CX Bronze Partner,+1 408-774-4272,ylucas@southbaycommunications.com,http://www.southbaycommunications.com
Valley TechLogic Inc3CX Bronze Partner,+1 209-357-3121,rory@valleytechlogic.com,http://www.valleytechlogic.com/
Amazing 7 LLC/Strategic Tech Solutions3CX Gold Partner,+1 719-644-8666,matt@amazing7llc.com,http://www.strategictech.solutions
Automotive Lynk3CX Gold Partner,+1 303-265-3867,cj.deboer@automotivelynk.com,https://www.automotivelynk.com/
CNT Group3CX Gold Partner,+1 303-757-7181,orders@cntgroup.com,http://www.cntgroup.com/
MDC and Associates3CX Gold Partner,+1 720-404-1499,mclanton@mdctdc.com,http://www.mdctdc.com/
"New Vision Technology Group, Inc.3CX Gold Partner",+1 720-399-0350,brian@newvistech.com,http://www.newvistech.com
TEC Integration3CX Gold Partner,+1 303-268-6610,dshaw@tecintegration.com,http://www.tecintegration.com
Alpha Network Systems3CX Silver Partner,+1 970-373-4546,rob.citrino@alphanetworksystems.com,http://www.alphanetworksystems.com
Colorado Voip Communications LLC3CX Silver Partner,+1 970-449-1644,info@coloradovoipcommunications.com,http://www.coloradovoipcommunications.com
"Data Voice Options, LLC.3CX Silver Partner",+1 720-900-1111,jeff@datavoiceoptions.com,http://www.datavoiceoptions.com
"DataPath Solutions, Inc.3CX Silver Partner",+1 303-400-4100,helpdesk@datapath-solutions.net,https://datapath-solutions.net
Millennium Group3CX Silver Partner,+1 970-663-1200,andy@milpond.com,http://milpond.com
"Netelligence, LLC3CX Silver Partner",+1 719-589-2464,Loren@Netelligence.com,http://www.netelligence.com
"NetForce PC, Inc.3CX Silver Partner",+1 970-565-2787,info@netforcepc.com,https://www.netforcepc.com
SpeedWise IT Services3CX Silver Partner,+1 720-443-0445,info@speedwise.net,https://speedwise.net
Technowledge Inc.3CX Silver Partner,+1 719-368-4012,s.compton@technowledge.com,http://www.technowledge.com
The Millennium Group Computing3CX Silver Partner,+1 720-540-8900,gary@tmgcinc.com,http://www.tmgcinc.com
Integritek3CX Bronze Partner,+1 512-535-0908,mtonn@iwsit.com,http://www.iwsit.com
PJV Consulting LLC3CX Bronze Partner,+1 303-618-9416,phil@pjvconsulting.com,http://www.pjvconsulting.com
Provelocity3CX Bronze Partner,+1 970-255-0103,sales@provelocity.com,http://www.provelocity.com
Uptown Technologies3CX Bronze Partner,+1 303-927-0088,jim@uptowntechs.com,http://www.uptowntechs.com
Xcelitek3CX Bronze Partner,+1 720-598-1400,dale.briggs@xcelitek.com,http://xcelitek.com
Charles IT3CX Gold Partner,+1 860-344-9628,admin@Charlescomputerservices.com,http://www.CharlesIT.com
SMB Networks LLC3CX Gold Partner,+1 203-815-1680,ericr@smbnetworksllc.com,http://www.smbnetworksllc.com
"Command N, LLC3CX Silver Partner",+1 860-333-6116,nbannister@commandnit.com,https://www.commandnit.com/
"Vista IT Solutions, LLC3CX Silver Partner",+1 203-651-7102,manish@vitsusa.com,http://www.vitsusa.com
DataInStream LLC3CX Bronze Partner,+1 203-554-0905,ihab@datainstream.com,http://www.datainstream.com
"KD Systems, Inc.3CX Bronze Partner",+1 203-487-6300,Service@KDSystemsInc.com,
SSD Technology Partners3CX Gold Partner,+1 800-652-3360,license@ssdel.com,http://www.ssdel.com
"Atlas Professional Services, Inc.3CX Platinum Partner",+1 813-999-4499,tkincaid@atlasps.com,http://www.atlasps.com
BizPhones4u3CX Platinum Partner,+1 813-866-8686,darr@bizphones4u.com,http://bizphones4u.com/
Data-Tech3CX Platinum Partner,+1 813-872-8011,mikeponticello@datatechitp.com,http://www.datatechitp.com
SkySwitch3CX Platinum Partner,+1 858-605-0313,ben.macalindong@skyswitch.com,https://www.skyswitch.com
West Networks LLC3CX Platinum Partner,+1 352-316-7704,sales@westnetworks.com,http://www.westnetworks.com
"All Tel Networks, LLC3CX Gold Partner",+1 772-223-8908,dwarren@alltelnetworks.com,http://www.alltelnetworks.com
"Alltech Computer &amp; IT Services, Inc3CX Gold Partner",+1 813-900-9606,support@alltechit.com,https://alltechit.com
"DataCorps Technology Solutions, Inc.3CX Gold Partner",+1 813-655-9247,angel.rojas@datacorps.com,http://www.datacorps.com
Greenwire Technology Solutions3CX Gold Partner,+1 239-444-5522,noc@greenwireit.com,http://www.Greenwireit.com
Happy Computers LLC3CX Gold Partner,+1 850-729-7845,happycomputersllc@gmail.com,http://www.happycomputers.com
N-Sync Inc3CX Gold Partner,+1 321-784-8488,keith@nsyncdata.net,http://www.nsyncdata.net
Site Tech Services3CX Gold Partner,+1 813-549-5712,brhone@sitetechservices.com,http://www.sitetechservices.com
Smart City Telecom3CX Gold Partner,+1 407-828-6726,jkennedy@smartcity.com,https://smartcity.com/
Synapse 360 IT3CX Gold Partner,+1 407-641-2122,carlos@synapse360.co,http://www.synapse360it.com
"Teletonix Communications, LLC3CX Gold Partner",+1 800-792-8647,Mcaponong@teletonix.com,http://www.teletonix.com
BounceTel Communications3CX Silver Partner,+1 727-322-4000,3CX@bouncetel.com,http://www.bouncetel.com
"Briskco, Inc3CX Silver Partner",+1 786-619-3824,wrignack@briskco.com,http://www.briskco.com
CMP Technologies3CX Silver Partner,+1 239-990-8160,info@cmptechgroup.com,http://www.cmptechgroup.com
Converge Solutions Inc.3CX Silver Partner,+1 305-515-8780,bernard.smith@convergesolve.com,http://convergesolve.com/
Cytranic Corp3CX Silver Partner,+1 888-432-2283,cory@cytranic.com,http://www.cytranic.com
"Evolution Networks, LLC3CX Silver Partner",+1 954-866-1600,chris@evo-networks.com,http://evo-networks.com
"First Choice Technology, Inc.3CX Silver Partner",+1 407-408-0619,customerservice@firstchoicetele.com,http://www.firstchoicetele.com
Grab-A-Line3CX Silver Partner,+1 833-568-9799,info.grabaline@gmail.com,https://www.grabaline.com
GreenVoIP Solutions3CX Silver Partner,+1 321-480-6689,john@greenvoipsolutions.com,http://www.greenvoipsolutions.com
"Guru Monitoring, Inc.3CX Silver Partner",+1 888-538-6881,evan@thenetworkgurus.com,http://www.thephonegurus.com
HERO Managed Services LLC3CX Silver Partner,+1 813-787-7678,dan@heromanaged.com,http://www.heromanaged.com
Infotect Design Solutions3CX Silver Partner,+1 813-630-2400,admin@infotectdesign.com,http://www.infotectdesign.com
ION2473CX Silver Partner,+1 844-466-2474,cdavis@ion247.com,http://www.ion247.com/
Loxia Technologies3CX Silver Partner,+1 305-428-2190,mk@loxiatech.com,http://www.loxiatech.com
"LTC Technology Systems, INC.3CX Silver Partner",+1 352-620-8222,darmstrong@ltcsystems.us,http://ltcsystems.us
Michael McIntosh Test Acct3CX Silver Partner,+1 581-702-7402,mmc@3cx.com,https://www.3cx.com
"NIDCIS, Inc3CX Silver Partner",+1 954-607-7889,david@nidcis.com,http://www.nidcis.com
"Price Communications, LLC.3CX Silver Partner",+1 904-545-2585,jprice@pricecomm.com,http://www.pricecomm.com
Remoteworks3CX Silver Partner,+1 305-256-6100,3cx@remote-works.com,http://www.remote-works.com
Southern Electronic Telephone3CX Silver Partner,+1 305-245-0011,raymund@settel.com,http://www.settel.com
Tallwood Technology Group3CX Silver Partner,+1 904-757-4201,ronald@tallwood.net,http://www.tallwood.net
Think VoIP Services3CX Silver Partner,+1 844-767-1924,3CX@thinkvoipservices.com,http://Thinkvoipservices.com
TruTechnology3CX Silver Partner,+1 904-559-1600,Doug.Lowenthal@trutech.com,http://www.trutech.com
Venture Pointe3CX Silver Partner,+1 904-351-8101,josh.lee@venturepointe.com,http://www.venturepointe.com
Your Only IT Solution3CX Silver Partner,+1 954-551-9798,peter@gatortelcom.com,http://www.Gatortelcom.com
Advanced Network Consulting3CX Bronze Partner,+1 561-293-3700,tdube@advancednc.com,http://www.advancednc.com
"All About Technology, LLC3CX Bronze Partner",+1 386-864-9406,jeremym@allabouttechnologyllc.com,https://allabouttechnologyllc.com
Augustine Computer Services3CX Bronze Partner,+1 904-342-6351,sgraddy@augustinecomputerservices.com,http://www.AugustineComputerServices.com
"Automated Interiors, Inc.3CX Bronze Partner",+1 954-649-6015,droller@aiifla.com,http://www.automatedinteriorsinc.com
Brothers Media3CX Bronze Partner,+1 904-518-3377,asargent@dealeritgroup.com,http://www.dealeritgroup.com
"Central Florida Phones &amp; Internet, LLC3CX Bronze Partner",+1 352-414-7600,josh@phonesandinternet.com,http://www.phonesandinternet.com
Cloud Compliance Solutions3CX Bronze Partner,+1 561-990-3810,kallen@ccsius.com,http://www.ccsius.com
Comseva Technologies LLC3CX Bronze Partner,+1 727-233-9986,wwright@comseva.com,http://www.comseva.com
"Data Cube Systems, Inc3CX Bronze Partner",+1 407-857-9904,james@datacubesystems.com,http://www.datacubesystems.com
"Dominium Technology, LLC3CX Bronze Partner",+1 954-660-0633,sergio@dominiumtech.com,http://www.dominiumtech.com
Emerald Data Partners3CX Bronze Partner,+1 352-224-4288,eric.may@emeralddata.us,http://www.emeralddata.us
Engage3CX Bronze Partner,+1 305-320-0200,brad@engage.pro,http://www.engage.pro
Giaspace3CX Bronze Partner,+1 954-255-1757,Robert@Giaspace.com,https://www.Giaspace.com
Infinitech IT Services LLC3CX Bronze Partner,+1 813-906-5050,owen@askinfinitech.com,http://www.askinfinitech.com
"JWT Technologies, LLC.3CX Bronze Partner",+1 321-926-4001,justin@jwt-tech.com,http://www.jwt-tech.com
Level5 Management3CX Bronze Partner,+1 561-509-2077,info@level5mgmt.com,https://www.level5mgmt.com
Makro IT3CX Bronze Partner,+1 305-340-2636,info@makroit.com,https://www.makroit.com
"MicroLogix Network Services, LLC.3CX Bronze Partner",+1 321-282-3290,rob@virtualit.cc,http://www.virtualit.cc
"Nerds Support, Inc3CX Bronze Partner",+1 305-551-2009,scottr@nerdssupport.com,http://www.nerdssupport.com
NovaTech Computer Solutions3CX Bronze Partner,+1 305-519-3419,diego@novaitsupport.com,http://www.novaitsupport.com
nSymphony3CX Bronze Partner,+1 727-551-4636,jfranklin@nsymphony.com,http://www.nsymphony.com
Pentasys3CX Bronze Partner,+1 727-692-7055,steve@pentasys.net,http://www.pentasys.net
Platform W Corp3CX Bronze Partner,+1 305-299-8689,sergio.willcox@platformw.co,http://www.platformw.co
Tek Country Inc3CX Bronze Partner,+1 303-501-4637,cameron@tekcountry.com,http://www.tekcountry.com
"The Kildare Group, Inc.3CX Bronze Partner",+1 305-654-4467,ekildare@kcgtechservices.com,http://www.kcgtechservices.com
Thinvox3CX Bronze Partner,+1 305-515-2601,g.arcuri@thinvox.com,http://www.thinvox.com
"VisionTek Systems, LLC3CX Bronze Partner",+1 386-742-4782,info@visionteksystems.com,http://www.visionteksystems.com
A&amp;J Computers Inc3CX Platinum Partner,+1 770-514-1640,joe@ajcomputers.com,http://www.ajcomputers.com
ECS Inc. (Electronics Communication Services)3CX Gold Partner,+1 770-987-5469,nloew@callecs.net,http://www.callecs.net
Medicus IT3CX Gold Partner,+1 888-572-2201,sales@medicusit.com,http://www.medicusit.com
"MIS Solutions, Inc.3CX Gold Partner",+1 770-945-5487,lliam@mis-solutions.com,http://www.mis-solutions.com
Omega Technology Group3CX Gold Partner,+1 706-776-6945,chip@omegatechnologygroup.net,http://www.omegatechnologygroup.net
Qsource Networks3CX Gold Partner,+1 678-947-8366,sales@qsource.net,http://www.qsource.net
"RMS Associates, Inc.3CX Gold Partner",+1 770-988-9640,rrowe@rmsatl.com,http://www.rmsatl.com
Bare Computing3CX Silver Partner,+1 770-715-0034,andy@barecomputing.net,http://www.barecomputing.net
Brightside3CX Silver Partner,+1 678-389-3896,keith@brightside.net,http://www.brightside.net
Conquest Solutions3CX Silver Partner,+1 770-953-2500,rose@csatlanta.com,http://www.csatlanta.com
"CrownTech Computer Services, Inc.3CX Silver Partner",+1 770-888-0901,joe@crowntechcomputer.com,http://www.crowntechcomputer.com
DEKA Technologies Inc.3CX Silver Partner,+1 800-672-3352,tearls@dekait.com,http://www.dekait.com
Digital Technology Partners3CX Silver Partner,+1 770-918-0075,jonathan@dtpartners.com,http://www.dtpartners.com
"Intelligent Networks, Inc.3CX Silver Partner",+1 706-677-1543,ctucker@inincga.com,http://intelligentnetworks.us
IRM Technology Consulting3CX Silver Partner,+1 770-408-0459,ivan@irmtechnology.com,http://www.irmtechnology.com
Micro Technology Consultants3CX Silver Partner,+1 478-954-4012,jeff.rideout@microtechnology.net,http://www.microtechnology.net
Net Dr3CX Silver Partner,+1 678-702-5500,sales@netdr.net,http://netdr.net/
Nexxtep Technology Services3CX Silver Partner,+1 229-671-1513,gmurphy@nexxtep.com,https://nexxtep.com
Selective Solutions LLC3CX Silver Partner,+1 770-929-1155,ken@selectivesolutions.com,http://www.selectivesolutions.com
5Q Partners3CX Bronze Partner,+1 678-825-3935,support@5qpartners.com,http://www.5qpartners.com
"Chatham Technology Group, Inc.3CX Bronze Partner",+1 912-330-9901,rschrum@gmail.com,http://www.chathamtechnologygroup.com
CMIT Solutions of Atlanta Southern Crescent3CX Bronze Partner,+1 770-731-0824,asc.sales@cmitsolutions.com,https://cmitsolutions.com/atlanta-southern-crescent/
Headwaters Group3CX Bronze Partner,+1 770-925-0955,mark.ziskind@headwaters.group,http://headwaters.group
"In-Touch Computer Services, Inc3CX Bronze Partner",+1 706-232-9557,wynn.jones@intouchit.com,http://www.intouchit.com
"NetCom Systems, Inc.3CX Bronze Partner",+1 770-642-5555,officemgr@netcom-inc.com,http://www.netcom-inc.com
Rocket IT3CX Bronze Partner,+1 404-933-7787,3cxadmin@rocketit.com,http://www.rocketit.com
"Samford Computer Services, LLC3CX Bronze Partner",+1 770-552-9935,csamford@scsatl.com,http://www.scsatl.com
IT Kauai Inc3CX Bronze Partner,+1 808-246-4446,brad@itkauai.com,http://www.itkauai.com
Managed IT &amp; Document Technologies of Arizona3CX Titanium Partner,+1 480-237-7901,jgreenough@doctechaz.com,http://www.manageditarizona.com
Fahillion Technologies3CX Silver Partner,+1 805-703-4550,nplummer@fahillion.com,http://www.fahillion.com
Intra-Comm LLC.3CX Bronze Partner,+1 208-880-5273,grant@intra-comm.net,
Sollus Information Systems3CX Bronze Partner,+1 208-242-3059,jordan.anderson@sollusis.com,http://sollusis.com
CrossRealms Inc.3CX Titanium Partner,+1 312-278-4445,telephony@crossrealms.com,http://www.crossrealms.com
"AJ Technology Consulting, Inc3CX Gold Partner",+1 708-942-8200,agiacobbe@ajtc.net,http://www.ajtc.net
"Noventech, Inc.3CX Gold Partner",+1 630-595-5200,info@noventech.com,https://noventech.com
Novusys LLC3CX Gold Partner,+1 312-520-4266,helpdesk@novusys.com,http://www.novusys.com
"SAR Voice Systems, Inc3CX Gold Partner",+1 847-420-7053,admin@sarvosys.com,http://www.sarvosys.com
Vectra Media3CX Gold Partner,+1 773-895-0780,gojko@vectramedia.com,http://www.vectramedia.com
A Microsystems Development3CX Silver Partner,+1 847-514-8769,jeff.corey@microchicago.com,http://www.microchicago.com
AZBS Inc3CX Silver Partner,+1 312-474-9400,don@azbs.com,http://www.azbs.com
"Drainer Technologies, Inc.3CX Silver Partner",+1 618-208-4010,michael@drainertechnologies.com,http://www.drainertechnologies.com
"Evrosystems, Inc.3CX Silver Partner",+1 312-550-4430,george@evrosystems.com,http://www.evrosystems.com
"I Know a Guy, LLC3CX Silver Partner",+1 630-492-0501,giuseppe@iknowaguy.net,http://www.iknowaguy.net
ITS Chicago3CX Silver Partner,+1 312-583-7279,voip@jexet.com,http://www.jexet.com
Mayer Networks Inc3CX Silver Partner,+1 866-515-4922,james@mayernetworks.com,http://www.mayernetworks.com
MCS Office Technologies3CX Silver Partner,+1 217-784-1083,doug@mcsot.com,http://www.mcsot.com
MIS Choice3CX Silver Partner,+1 847-690-1900,sales@mischoice.com,http://www.mischoice.com
"NuEra Services, Inc3CX Silver Partner",+1 630-869-6025,john@NuEraVOIP.us,http://www.fletcherconsulting.us
PRO3CX Silver Partner,+1 773-907-0600,florian@youneedapro.com,https://www.youneedapro.com
PTC Select3CX Silver Partner,+1 309-685-8400,djaegle@ptcselect.com,http://www.ptcselect.com
ReachOut Technology Co3CX Silver Partner,+1 312-288-8000,rick@reachoutit.com,http://reachoutit.com
"Technology Support &amp; Solutions, Inc.3CX Silver Partner",+1 312-977-9800,3cx@tsslive.com,http://www.chicagotechsupport.com
"Zlan Partners, A Sharp IT Company3CX Silver Partner",+1 317-844-0033,rzimny@zlanpartners.com,http://www.zlanpartners.com
Association Technologies3CX Bronze Partner,+1 630-293-4900,doros@assctech.com,http://www.assctech.com
Duke Associates3CX Bronze Partner,+1 847-807-3700,purchasing@dukeinc.com,http://www.dukeinc.com
"Northbridge Professional Technologies, Inc.3CX Bronze Partner",+1 618-565-0471,steve@northprotech.com,http://www.northprotech.com
"Red Edge Solutions, Ltd.3CX Bronze Partner",+1 312-239-8822,lukas@rededgesol.com,http://www.rededgeit.com
Simply Smart Technology3CX Bronze Partner,+1 312-204-7320,erin@simplysmarttech.com,http://www.simplysmarttech.com
"The I.T. Connection, Inc3CX Bronze Partner",+1 815-526-3600,keith@the-it-connection.com,http://www.the-it-connection.com
Applied Technology Group3CX Platinum Partner,+1 260-482-2844,adamh@atgfw.com,http://www.atgfw.com/3cx
"Enterprise Unified Solutions, Inc.3CX Platinum Partner",+1 317-806-4324,rbailey@enterpriseus.net,https://enterpriseus.net/
The AME Group3CX Platinum Partner,+1 812-726-2047,kgreenwood@theamegroup.com,http://www.theamegroup.com
Automated Office Solutions3CX Gold Partner,+1 812-471-5005,RGP@aos-evv.com,http://www.aos-evv.com
"IP Solutions, Inc.3CX Gold Partner",+1 574-259-6000,drewj@phonedatasupport.net,http://www.phonedatasupport.net
One Choice Technology3CX Gold Partner,+1 317-563-0300,sales.us@onechoice.tech,http://onechoice.tech
"RPM Technologies, LLC3CX Gold Partner",+1 317-973-1100,mfricker@rpmit.com,http://www.rpmit.com
"Advanced Network &amp; Computer Services, Inc.3CX Silver Partner",+1 812-602-6600,jstaples@advncs.com,http://www.advncs.com
CNC Computer Technologies3CX Silver Partner,+1 317-507-1320,ccrane@cnccomtech.com,http://www.cnccomputertechnologies.com
MacLand Networks3CX Silver Partner,+1 574-361-1546,derek@derekfreeze.com,http://www.derekfreeze.com
MainStay Solutions3CX Silver Partner,+1 260-486-8100,helpdesk@yourmainstay.com,https://yourmainstay.com
Mid City Office Systems3CX Silver Partner,+1 260-925-3414,mdboswell@midcityos.com,http://www.midcityofficesystems.com
Pinnacle Technology Solutions3CX Silver Partner,+1 260-205-8900,jnelson@pintechfw.com,https://www.pintechfw.com
"Priority Computer Services, Inc3CX Silver Partner",+1 574-236-5979,scott@pcs4you.com,http://www.pcs4you.com
"Tubesock, Inc.3CX Silver Partner",+1 317-398-6766,rob@tubesock.net,http://www.tubesock.net
Unity Tek3CX Silver Partner,+1 765-237-9390,vlodha@unity-tek.com,http://www.unity-tek.com
ACCENT CONSULTING SERVICES3CX Bronze Partner,+1 765-420-7487,accountmanager@accentconsulting.com,http://www.accentconsulting.com
CONTINUUM TECHNOLOGY GROUP3CX Bronze Partner,+1 260-433-4503,clipp@continuumtechnologygroup.com,http://www.continuumtechnologygroup.com
Crystal Valley Computers3CX Bronze Partner,+1 574-825-8400,orders@mailcvc.com,https://AtlasIT.org
Exact IT Consulting3CX Bronze Partner,+1 317-608-0227,dlaw@exactitconsulting.com,http://www.exactitconsulting.com
Hyper Wave Communications3CX Bronze Partner,+1 574-936-8183,dan@hyperwavetech.com,http://www.hyperwavetech.com
Midwest VoIP3CX Bronze Partner,+1 260-490-7740,aoberlin@4eos.com,http://www.midwestvoip.com
Phantom Point Technology Services3CX Bronze Partner,+1 765-230-2132,tjones@phantompoint.com,http://www.phantompoint.com
Simply Creative Technologies3CX Bronze Partner,+1 260-589-6030,landon@simplycreativetech.com,http://www.simplycreativetech.com
Telewebtech3CX Bronze Partner,+1 866-362-5355,nupton@telewebtech.com,http://www.telewebtech.com
"Creative Software Services, Inc3CX Gold Partner",+1 319-362-7722,partners@cssconsulting.com,http://www.cssconsulting.com/
Infrastructure Technology Solutions3CX Gold Partner,+1 319-465-4463,joel@infrastructuretech.net,http://www.iowadatacenters.com
Netsys+3CX Gold Partner,+1 712-274-8838,princer@netsysplus.com,http://www.netsysplus.com
Global Reach Internet Productions3CX Silver Partner,+1 515-996-0996,ssg@globalreach.com,http://www.globalreach.com
"Next Generation Technologies, LLC3CX Silver Partner",+1 641-562-2226,sales@ngtnet.net,https://ngtnet.net/
VitalIT Technology Solutions3CX Silver Partner,+1 515-884-8324,david@vitalittech.com,http://www.vitalittech.com
Winnebago Cooperative Telecom Association3CX Silver Partner,+1 800-592-6105,aaronjohnson@wctatel.com,http://www.wctatel.net
Frost Nuzum &amp; Associates3CX Bronze Partner,+1 641-259-3389,frost@nuzums.com,http://www.nuzums.com
"Layton Flower Technologies, LLC.3CX Bronze Partner",+1 712-256-7110,cgross.3cx@laytonflower.com,http://www.laytonflower.com
Mainstay Systems Inc.3CX Bronze Partner,+1 515-865-5273,ccurtis@mainstay.systems,http://www.mainstay.systems
"Starr Computer Solutions, Inc.3CX Platinum Partner",+1 620-225-1499,starr@starrtech.net,http://www.starrtech.net
HealthSource Integrated Solutions3CX Gold Partner,+1 785-291-9631,pyancey@khs-ks.org,http://www.khs-ks.org
Midwest Health Management3CX Gold Partner,+1 785-272-1535,flefort@midwest-health.com,http://midwest-health.com
Layer Eight Technology3CX Bronze Partner,+1 913-738-4340,info@layereight.com,http://www.layereight.com
Louisville Geek. LLC3CX Platinum Partner,+1 502-897-7577,jeff@lougeek.com,http://www.lougeek.com
McAllen Solutions3CX Platinum Partner,+1 502-223-3344,jon@mcalleninc.com,http://www.mcalleninc.com
Axiom Solutions3CX Gold Partner,+1 270-506-0000,mperkins@go2axiom.com,http://www.go2axiom.com
KeeFORCE3CX Gold Partner,+1 270-851-0354,cbrinker@keeforce.com,http://www.keeforce.com
LightChange Technologies3CX Gold Partner,+1 502-702-0500,moconers@lightchange.com,https://lightchange.com
Neville Data Solutions LLC3CX Gold Partner,+1 800-934-1890,cneville@neville.net,http://www.neville.net
SKYE Technologies3CX Silver Partner,+1 502-585-9669,zfrazier@skyemx.com,http://www.skyetechnologies.com
United Systems &amp; Software3CX Silver Partner,+1 270-906-9838,jeffh@united-systems.com,http://www.tpmbyunitedsystems.com
Velecor3CX Silver Partner,+1 513-984-3900,zachary.morvik@lanrm.com,http://www.LANRM.com
East Kentucky Telecom Inc.3CX Bronze Partner,+1 606-261-6028,sethmitchell@eastkytelecom.com,http://www.eastkytelecom.com
"IS Group, Inc.3CX Bronze Partner",+1 270-709-1009,bgriffith@isgroup-inc.com,http://www.isgroup-inc.com
"London Technology Services, LLC3CX Bronze Partner",+1 606-224-3272,karrj@londontechnologyservices.com,https://www.LondonTechnologyServices.com
"Ridgenet Network Group, LLC3CX Bronze Partner",+1 606-280-9815,eric.wilson@ridgenet.us,http://www.ridgenet.us
Tactical IT Group3CX Bronze Partner,+1 888-223-6781,jpropps@tactical-it.com,http://www.tactical-it.com
BridgeNet Technology Consultants3CX Platinum Partner,+1 866-529-1568,info@bridgenetllc.com,http://www.bridgenetllc.com
Kinetix Technologies3CX Gold Partner,+1 318-487-8200,ryan@kbisp.com,http://www.kbisp.com
"NetTech, LLC3CX Gold Partner",+1 318-251-8993,aaron.paul@nettech.net,http://www.nettech.net
My IT LLC3CX Silver Partner,+1 504-888-6948,chrisg@myitsupport.com,http://www.myitsupport.com
Server@Work3CX Silver Partner,+1 855-967-5247,admins11@serveratwork.com,https://www.serveratwork.com
Techneaux Technology Services3CX Silver Partner,+1 800-337-5313,christian.grundy@techneaux.com,http://www.techneaux.com
Transformyx3CX Silver Partner,+1 225-761-0088,licensing@tfmx.com,http://www.tfmx.com
Wahaya IT Consulting3CX Silver Partner,+1 225-273-1206,sales@wahaya.com,http://www.wahaya.com
"Arsement &amp; Hayes, LLC3CX Bronze Partner",+1 337-856-7743,ben@ah-computers.com,http://www.ah-computers.com
Microland Computer Center3CX Bronze Partner,+1 985-626-7900,3cxsales@microlandcomputers.com,http://www.microlandcomputers.com
Structure3CX Bronze Partner,+1 337-433-6262,bbunderson@structurex.net,http://www.structurex.net
S.J. Rollins Technologies3CX Platinum Partner,+1 207-941-0264,jstellato@sjrollins.com,http://www.sjrollins.com
Reboot Information Technologies3CX Silver Partner,+1 207-554-5110,info@reboot-it.us,http://reboot-it.us
Technology Solutions of Maine3CX Silver Partner,+1 207-530-4744,jdrouin@techsolutionsme.com,http://www.techsolutionsme.com
Third Eye Global3CX Bronze Partner,+1 207-907-0707,chuck@thirdeyeglobal.com,http://www.thirdeyeglobal.com
Target Distributing3CX Platinum Partner,+1 301-296-9436,mjordan@targetdist.com,http://www.targetd.com
Celerius Inc.3CX Gold Partner,+1 410-879-7558,accounting@celerius.com,http://www.celerius.com
Certified CIO3CX Silver Partner,+1 443-283-0666,Steven.Plumlee@CertifiedCIO.com,http://www.CertifiedCIO.com
"Swift Systems, Inc.3CX Silver Partner",+1 301-682-5100,procurement@swiftsystems.com,http://www.swiftsystems.com
"Xecunet, LLC3CX Silver Partner",+1 301-682-9972,sales@xecu.net,https://www.xecu.net
Capitol Computer3CX Bronze Partner,+1 301-731-4585,sales@ccex.com,http://www.ccex.com
Hyper Media3CX Bronze Partner,+1 410-752-9000,abalto@hypmedia.com,http://www.hypmedia.com
IntelliComp Technologies3CX Bronze Partner,+1 410-484-7270,agreen@intellicomp.us,http://www.intellicomp.net
"Reterex, LLC3CX Bronze Partner",+1 410-204-5200,sales@reterex.com,http://www.reterex.com
Single Pointe Technologies3CX Bronze Partner,+1 877-410-7475,grobinson@singlepointetech.com,http://www.singlepointetech.com
Cove Central Communications LLC3CX Silver Partner,+1 877-881-2352,help@covecentral.com,http://www.covecentral.com
Integra Network Services3CX Silver Partner,+1 508-482-5510,mmacfarland@integranets.com,http://www.integranets.com
Network Coverage3CX Silver Partner,+1 978-739-8060,mdaniels@netcov.com,http://www.netcov.com
Coastline Technologies3CX Bronze Partner,+1 508-217-3400,gcincotta@coastlinetechnologies.com,https://www.coastlinetechnologies.com
Hardwick Technologies3CX Bronze Partner,+1 617-600-7577,rick@hardwicktech.com,http://www.hardwicktech.com/
Kinetix3CX Titanium Partner,+1 616-887-5689,purchasing@kinetixinc.com,http://www.kinetixinc.com
Arienne Associates3CX Platinum Partner,+1 269-359-7288,salesteam@arienne.com,http://www.arienne.com
CallTower DBA Appia Communications3CX Platinum Partner,+1 800-877-2224,3cxsales@appiaservices.com,http://www.appiaservices.com/3cx
Deerfield Communications Inc.3CX Platinum Partner,+1 800-599-8856,sales@deerfield.net,http://3cx.deerfield.net
"Worksighted, Inc.3CX Platinum Partner",+1 616-546-2691,quotes@worksighted.com,http://www.worksighted.com
MichTel3CX Gold Partner,+1 248-636-1100,keith@michtelco.com,http://michtelco.com
Omega Computer Services3CX Gold Partner,+1 269-762-8404,ron@omegacomputerservices.com,http://www.omegacomputerservices.com
"Quantum Services Group, LLC.3CX Gold Partner",+1 248-247-3000,sales@qsgit.com,http://qsgit.com
Adna Technologies3CX Silver Partner,+1 517-679-3300,nathan@teamadna.com,http://www.adnatechnologies.com
EMTech Services Inc.3CX Silver Partner,+1 616-258-6120,emeschke@emtechservices.com,http://www.emtechservices.com
Fusion IT LLC3CX Silver Partner,+1 616-828-5360,partner@fusion-it.net,http://www.fusion-it.net
Kotman Technology3CX Silver Partner,+1 559-347-8200,jon@kotman.com,http://www.kotman.com
PeopleIT3CX Silver Partner,+1 616-594-7100,hello@peopleit.com,http://www.peopleit.com
Shoreline Register Systems3CX Silver Partner,+1 231-903-0225,michael@shorelineregistersystems.com,https://www.shorelineregistersystems.com
SJA Solutions3CX Silver Partner,+1 616-451-2045,rrogers@sja-solutions.com,http://www.sja-solutions.com
Superior Eagle3CX Silver Partner,+1 906-485-6080,nwilliams@superioreagleinc.com,http://www.superioreagle.com
Ascentive3CX Bronze Partner,+1 248-781-0020,slapratt@ascentivemi.com,http://www.ascentivemi.com
BAE Networks3CX Bronze Partner,+1 248-707-1040,ryanb@baenetworks.com,http://www.baenetworks.com
Datagramm3CX Bronze Partner,+1 574-485-4607,sgramm@datagramm.biz,http://sgramm.wix.com/datagrammcallcenter
Detroit IT3CX Bronze Partner,+1 248-530-1001,eric@detroitit.com,http://www.detroitit.com
"EGLtech, Inc.3CX Bronze Partner",+1 616-392-7422,rickh@egltech.net,http://www.egltech.net
Exceed Consulting3CX Bronze Partner,+1 616-878-0000,mayers@exceed-corp.com,http://www.myexceed.com
Integrated Technology Business Services3CX Bronze Partner,+1 269-475-4751,nathan@itbs.us,http://itbs.us
K-Data Systems3CX Bronze Partner,+1 616-235-6860,nickk@scsiusa.com,http://www.kgroupcompanies.com/
"R&amp;R Technical Services, LLC3CX Bronze Partner",+1 989-266-8600,randy@rr-ts.com,http://www.rr-ts.com
Rubix Technology3CX Bronze Partner,+1 800-799-4407,jason@rubixnet.com,http://www.rubixtechnology.com
Syscom Business Technologies3CX Bronze Partner,+1 231-946-1411,BTClous@syscomservice.com,https://syscombusiness.com
Tech Experts3CX Bronze Partner,+1 734-244-7300,tfox@mytechexperts.com,http://www.mytechexperts.com
Telcom Corp3CX Bronze Partner,+1 248-232-1400,sales@telcomcorp.net,http://www.telcomcorp.net
Innovative Technology Partner3CX Platinum Partner,+1 763-592-8888,andy@techspert.com,http://www.techspert.com
JDL Technologies Inc.3CX Gold Partner,+1 954-334-0650,sfluegge@jdltech.com,http://www.jdltech.com
"Marco Technologies, Inc3CX Gold Partner",+1 800-847-3001,tucker.sukraw@marconet.com,https://www.marconet.com/
OneNet Global3CX Gold Partner,+1 952-960-1000,bob.brunmeier@onenetglobal.com,http://www.onenetglobal.com
Valley View Microsystems3CX Gold Partner,+1 952-829-1991,danw@vvmicro.com,http://www.vvmicro.com/
DataComm Computers &amp; Networks3CX Silver Partner,+1 218-927-7019,tim@datacommus.com,http://www.datacommus.com/
GHA Technologies3CX Silver Partner,+1 612-223-6905,mike.chronquist@gha-associates.com,http://www.gha-associates.com
"HVG Systems, LLC3CX Silver Partner",+1 612-548-4797,jason.lowe@hvgsystems.com,https://www.hvgsystems.com
Tech Check LLC3CX Silver Partner,+1 320-230-2020,techteam@itechcheck.com,http://www.itechcheck.com
West Central Technology3CX Silver Partner,+1 320-441-7050,info@wcthelp.com,https://www.westcentraltechnology.com
Definitive Technology Solutions3CX Bronze Partner,+1 952-516-7900,tmchenry@go-dts.com,https://go-dts.com
Stromberg Technologies3CX Bronze Partner,+1 800-513-7428,mstromberg@strombergtech.con,http://www.strombergtech.com
Top Dog PC Services3CX Bronze Partner,+1 651-217-1237,joe@topdogpc.com,http://www.topdogpc.com
Tryon Hosting3CX Bronze Partner,+1 757-828-7966,josh@tryonhosting.com,http://tryonhosting.com
Telephone Technologies Inc3CX Gold Partner,+1 662-844-4488,barry@teltechms.com,http://www.teltechms.com
Accent Logic3CX Platinum Partner,+1 913-225-7796,tim@accentlogic.com,http://www.accentlogic.com
Blue Sky Technologies3CX Platinum Partner,+1 870-933-2583,brian.duckworth@myblue-sky.com,http://www.myblue-sky.com
Computer St. Louis3CX Platinum Partner,+1 314-821-3237,seth@computerstlouis.com,http://www.computerstlouis.com
"Rayfield Communications, Inc.3CX Platinum Partner",+1 417-887-4663,johnjr@rayfield.net,http://www.rayfield.net/3cx
Southwest Communications Inc.3CX Platinum Partner,+1 816-298-4100,jkirby@scitel.net,http://www.scitel.net
SW Business Solutions LLC3CX Gold Partner,+1 417-763-3707,mlofaro@sw-businesssolutions.com,http://www.sw-businesssolutions.com
Acumen Consulting3CX Silver Partner,+1 314-333-3330,purchases@acumen-corp.com,http://www.acumenitsupport.com/Technology/3cx-phone-systems/
Altec Solutions Group3CX Silver Partner,+1 417-862-6136,noah@altecsales.com,http://my.altecsales.com
BMA Inc.3CX Silver Partner,+1 314-900-2050,chris@bma.net,http://www.bma.net
Continuum Technology Group3CX Silver Partner,+1 314-880-5901,cbrendel@ctgstl.com,http://www.ctgstl.com
Converged Technology Solutions3CX Silver Partner,+1 866-292-9682,pitt.kays@didocts.com,http://www.didocts.com
"Fouche Enterprises, LLC.3CX Silver Partner",+1 417-889-8742,sales@fouche.net,https://www.fouche.net
InetVisions3CX Silver Partner,+1 417-684-5178,sbalk@inetvisions.net,http://www.inetvisions.net/
Miken Technologies3CX Silver Partner,+1 314-301-4112,mattc@miken.net,https://www.miken.net
NOC Technology3CX Silver Partner,+1 314-500-1000,voip@washpc.com,https://www.noctechnology.com
"System Integrators, LLC.3CX Silver Partner",+1 573-475-8224,rodney@systemintegrators.biz,http://www.systemintegrators.biz
Tech Team LLC3CX Bronze Partner,+1 816-396-8400,jason@techteamlc.com,http://www.techteamlc.com
VanderNet Technology Services3CX Bronze Partner,+1 417-973-0365,support@vandernet.biz,http://www.vandernet.biz
Red Phone Solutions3CX Silver Partner,+1 406-544-9332,tfogartyster@gmail.com,http://WWW.redphonesolutions.com
"Datus, Inc3CX Bronze Partner",+1 406-600-0748,randy@datus.tech,http://www.datus.tech
InfiNet Solutions Inc.3CX Gold Partner,+1 402-547-4310,3cx@omahait.com,http://www.omahait.com
DSX VOICE3CX Platinum Partner,+1 888-988-5598,info@dsxvoice.com,http://www.dsxvoice.com
Customer Solutions3CX Gold Partner,+1 305-400-9004,jason.laffrey@csx.cloud,http://www.csx.cloud
Intelligent Technical Solutions3CX Gold Partner,+1 702-869-3636,matt.phillips@itsasap.com,http://www.itsasap.com
Anax3CX Bronze Partner,+1 702-478-9000,dennis@anaxtech.com,http://www.anaxtech.com
"JFG Systems, Inc.3CX Bronze Partner",+1 775-882-5743,sales@jfgsystems.com,http://jfgsystems.com
Kortek Solutions3CX Bronze Partner,+1 702-242-4862,ticket@korteksolutions.com,
"MyTechPro Business Services, LLC3CX Bronze Partner",+1 702-448-2700,vendors@mytechpro.com,http://www.mytechpro.com
"Vital Communications, Inc.3CX Gold Distributor",+1 702-795-8550,Accounting@vitalcomm.net,http://www.vitalcomm.net
"ADNIT, Inc.3CX Platinum Partner",+1 207-872-5500,ggray@adnmaine.com,http://www.alliancedigitalnetworks.com
"Service Company Solutions, LLC3CX Platinum Partner",+1 877-877-8635,admin@servicecompanysolutions.com,http://www.servicecompanysolutions.com/
SMF Media Design LLC.3CX Silver Partner,+1 603-945-7283,sales@smfmediadesign.com,http://www.smfmediadesign.com
"Triplet Computers, LLC3CX Silver Partner",+1 603-410-6770,nate@trpcomp.com,http://www.trpcomp.com
CounterTrade Products Inc3CX Silver Partner,+1 303-424-9710,cdarrow@countertrade.com,https://www.countertrade.com
"JC Communications, Inc.3CX Silver Partner",+1 505-326-7655,hitob@jccommunicationsnm.com,http://dbtechnm.com
"LDD Consulting, Inc3CX Silver Partner",+1 505-792-2375,david@lddconsulting.com,http://www.lddconsulting.com
"VoIP Supply, LLC3CX Titanium Partner",+1 800-398-8647,voipexperts@voipsupply.com,http://www.voipsupply.com
Jivetel Inc.3CX Platinum Partner,+1 845-364-7000,israel@jivetel.com,http://www.jivetel.com
Albany Molecular Research Inc.3CX Gold Partner,+1 518-512-2000,amri-networkadmin@amriglobal.com,http://www.amriglobal.com
Intelligent Technology Solutions inc3CX Gold Partner,+1 518-731-9766,cbourguignon@itsyourit.com,http://www.itsyourit.com
LISS Consulting Corp3CX Gold Partner,+1 833-666-8647,info@lissconsulting.com,http://www.nspeak.net
LMT Technology Solutions3CX Gold Partner,+1 585-784-7470,Mvieru@lmtnet.com,http://www.LMTnet.com
CFX Business Solutions Inc3CX Silver Partner,+1 800-367-2679,mwillie@mycfx.com,http://www.mycfx.com
CMPLTE Inc3CX Silver Partner,+1 212-519-2298,partners@cmplte.com,http://www.cmplte.com
Diversified Integration Systems3CX Silver Partner,+1 212-845-9281,info@diversified-is.com,http://www.diversified-is.com
Foster Terrell Enterprise Technologies3CX Silver Partner,+1 805-457-0777,tech@ftetech.com,http://ftetech.com
"Geosot, Inc3CX Silver Partner",+1 718-310-1604,sotiris@geosot.com,http://www.geosot.com
Goldenberg Technologies3CX Silver Partner,+1 718-975-7590,vladg@drensys.com,http://www.drensys.com
Iridium Telekom Corp3CX Silver Partner,+1 718-412-9850,dimitrios.manolis@voip2tel.com,http://www.voip2tel.com
IT Realizer Inc.3CX Silver Partner,+1 718-514-2888,service@itrealizer.com,http://www.itrealizer.com
Madison Technology3CX Silver Partner,+1 212-390-1900,sales@mad4it.com,http://www.mad4it.com
"PointVoIP, LLC.3CX Silver Partner",+1 516-900-5353,jp@pointvoip.net,https://pointvoip.net
"Quantum Computer Systems, Inc.3CX Silver Partner",+1 212-279-6400,ebibas@qcsny.com,http://iqcs.com/
SIP Logic3CX Silver Partner,+1 212-738-0500,Seth@siplogic.com,http://www.siplogic.com
Upstate Communication and Security3CX Silver Partner,+1 585-737-9713,kmurray@ucs-corp.com,http://www.ucs-corp.com
"AKA Computer Consulting, Inc.3CX Bronze Partner",+1 718-351-5200,alexk@akaconsulting.com,http://www.akaconsulting.com
BondarTech3CX Bronze Partner,+1 315-733-8324,anatoly@bondartech.com,http://bondartech.com
Compuwork3CX Bronze Partner,+1 877-945-7177,orville@cpwk.com,https://cpwk.com
DB Network Solution LLC3CX Bronze Partner,+1 646-312-7124,dritanb@dbnetworksolution.com,http://www.dbnetworksolution.com
Epcom World Industries3CX Bronze Partner,+1 877-372-6665,rpancaro@epcomworld.com,http://www.epcomworld.com
Everest Communications Group3CX Bronze Partner,+1 212-981-0302,christopher.ready@ecguc.com,http://www.ecguc.com
Heights Telecom3CX Bronze Partner,+1 718-530-1150,info@heightstelecom.net,http://heightstelecom.net
KL Tech Consulting LLC3CX Bronze Partner,+1 914-513-2030,bryan@kltcny.com,http://www.kltcny.com
"Liberteks.com, Inc.3CX Bronze Partner",+1 518-452-0550,larryz@liberteks.com,http://www.liberteks.com
Macrotech II Corp3CX Bronze Partner,+1 631-648-4422,office@macrotech.com,http://www.macrotech.com
"Monarch Technologies, Inc.3CX Bronze Partner",+1 845-704-4705,ctreco@monarchtek.com,http://www.monarchtek.com
"Red Barn Technology Group, Inc3CX Bronze Partner",+1 607-772-1888,sales@thinkredbarn.com,http://rbc.redbarncomputers.com/products/business-phone-systems/
RJG Consulting Group LLC3CX Bronze Partner,+1 631-828-5033,rgonzales@rjggroup.com,http://www.rjggroup.com
"TRE Group, Inc3CX Bronze Partner",+1 718-808-9880,info@tregroup.net,https://www.tregroup.net
TelWare Corporation3CX Titanium Partner,+1 800-637-3148,sclontz@telware.com,http://www.telware.com
Data Consulting Group3CX Platinum Partner,+1 704-504-0338,ivan@webcluster.com,http://www.webcluster.com
One Source Communications-NC3CX Platinum Partner,+1 252-931-0222,pmeyer@ostcm.com,http://www.ostcm.com
Silverline Solutions3CX Platinum Partner,+1 252-689-7500,sales@silverlinesolutions.com,http://www.silverlinesolutions.com
Advanced Data &amp; Network Solution3CX Gold Partner,+1 828-285-8882,sales@adnsolutions.com,http://www.adnsolutions.com
Hill-Rom3CX Gold Partner,+1 919-854-3322,Desiree.Bell@hill-rom.com,http://www.hill-rom.com
"Alternate Access, Inc.3CX Silver Partner",+1 919-831-8288,KellyL@AlternateAccess.com,http://www.AlternateAccess.com
Carolina InfoTech3CX Silver Partner,+1 704-534-4197,bart@carolinainfotech.com,http://carolinainfotech.com
Computer Pros on Call3CX Silver Partner,+1 704-662-8383,steve@computerprosoncall.com,http://www.computerprosoncall.com
John Klaver3CX Silver Partner,+1 704-267-3617,jsklaver@gmail.com,
Navarac Technical Solutions3CX Silver Partner,+1 336-714-4469,ssmith@navarac.com,http://www.navarac.com/
Practical Computing3CX Silver Partner,+1 252-679-8400,jesse@practicalcomputing.biz,http://www.practicalcomputing.biz
"Proton Technologies, Inc.3CX Silver Partner",+1 866-605-1027,brad@protontechs.com,http://www.protontechs.com
The Memory Bank3CX Silver Partner,+1 704-636-5653,techs@membank.com,http://www.membank.com
VoIPAsheville3CX Silver Partner,+1 828-209-8647,larry@voipasheville.com,http://www.voipasheville.com
CoMPAS Cable3CX Bronze Partner,+1 828-438-5366,gbranch@compascable.com,http://www.compasxstream.com
"Computer Technologies of Eastern Carolina,llc3CX Bronze Partner",+1 252-646-3575,bhedreen@ctecnc.com,http://www.ctecnc.com
"IT Support Dept, Inc3CX Bronze Partner",+1 704-677-2893,jshank@itsupportdeptnc.com,http://www.itsupportdeptnc.com
Skytel Systems LLC3CX Bronze Partner,+1 919-443-1551,kvalentine@skytelglobal.com,https://www.skytelglobal.com/
"Network Center, Inc3CX Platinum Partner",+1 701-364-2467,bryan.wolters@netcenter.net,http://www.netcenter.net
VoxTeleSys3CX Platinum Partner,+1 402-403-4435,sales@voxtelesys.com,http://www.voxtelesys.com
"Pro IT, LLC3CX Silver Partner",+1 888-776-4828,stevep@proitnd.com,http://www.proitnerds.com
TrueIT3CX Silver Partner,+1 701-205-4506,renewals@trueit.com,http://www.trueit.com
Armor Interactive3CX Bronze Partner,+1 701-221-0948,kyle.baltrusch@armorinteractive.com,http://www.armorinteractive.com
ComResource Inc.3CX Titanium Partner,+1 614-221-6348,VoIPCommunications@comresource.com,http://www.comresource.com
BigOhio Business Telephone Systems3CX Platinum Partner,+1 330-485-6888,russ@bigohio.com,http://www.bigohio.com
"Blended Technology Solutions, LLC3CX Platinum Partner",+1 937-424-9484,eric@blendedtechnology.com,http://www.blendedtechnology.com
Green Line Solutions3CX Platinum Partner,+1 888-991-1526,nate@glcpu.com,https://www.greenmakesithappen.com
IQventures3CX Platinum Partner,+1 614-946-6262,john@iqventures.com,http://www.iqventures.com
N2Net3CX Platinum Partner,+1 216-619-2000,sales@n2net.com,http://www.n2net.net
NOACSC3CX Platinum Partner,+1 419-228-7417,ray@noacsc.org,http://www.noacsc.org
"TechnologyXperts, Inc.3CX Platinum Partner",+1 866-639-9507,ericc@technologyxperts.com,http://www.technologyxperts.com
"4BIS.COM, Inc.3CX Gold Partner",+1 513-469-7887,sales@4bis.com,https://www.4bis.com
Allen Miller Computer Consulting3CX Gold Partner,+1 513-321-5120,allen@millermanor.net,http://www.MillerManor.net
Blushift Wireless3CX Gold Partner,+1 330-893-4909,kyle@blushiftwireless.com,http://www.blushiftwireless.com
"JEM Network Consulting, LLC3CX Gold Partner",+1 419-447-5245,jason@jemnc.com,http://www.jemnc.com
Keytel Systems3CX Gold Partner,+1 614-866-7700,kris@keytelsystems.com,http://www.keytelsystems.com
"MIS Solutions, LLC3CX Gold Partner",+1 513-793-6222,mwissman@missolutions.com,https://www.missolutions.com
Telco Nerds3CX Gold Partner,+1 480-645-0995,3cx@telconerds.com,https://telconerds.com
Trithium Solutions3CX Gold Partner,+1 614-721-0255,richard.stalnaker@trithium.com,http://www.trithium.com
"AtNetPlus, Inc.3CX Silver Partner",+1 330-945-5685,sales@atnetplus.com,https://atnetplus.com
BMITC3CX Silver Partner,+1 216-410-1188,brian@bmitc.com,http://www.bmitc.com
CSJ Technologies3CX Silver Partner,+1 440-269-8915,Jcamino@csjtech.com,http://www.csjtech.com
EasyIT3CX Silver Partner,+1 614-339-4984,khoeft@easyit.com,http://www.easyit.com
"ECR Computers, Inc.3CX Silver Partner",+1 740-392-9246,service@ecr.net,http://www.ecr.net
"LaniCom, LLC3CX Silver Partner",+1 937-335-0202,tjboone@lanicom.com,http://www.lanicom.com
"Loricus, Inc.3CX Silver Partner",+1 216-931-0000,bn@loricus.com,http://www.loricus.com
"M-Tec Systems, Inc.3CX Silver Partner",+1 513-742-3100,RMitchell@MTecSystems.com,http://www.mtecsystems.com
"MAI Computing, Inc.3CX Silver Partner",+1 330-926-0840,mai@maicomputing.com,http://www.maicomputing.com
Mega-Byte Computer Services3CX Silver Partner,+1 440-293-6566,dan.creed@1024k.com,http://www.1024k.com
"Network Mgt, LLC3CX Silver Partner",+1 440-785-9856,jtaylor@dvvi.net,http://www.netmgt.net
Nexus Practice IT Services3CX Silver Partner,+1 614-212-8100,purchasing@nexuspracticeit.com,http://www.nexuspracticeit.com/contact/
Opti-Vise IT3CX Silver Partner,+1 800-834-7479,kyle@opti-vise.com,http://www.opti-vise.com
Outland Oddities3CX Silver Partner,+1 740-404-2965,brian@outlandoddities.com,http://www.outlandoddities.com
PC Net Techs LLC3CX Silver Partner,+1 419-379-1412,michael@pc-net-techs.com,http://www.pc-net-techs.com
True Blue Technology LLC3CX Silver Partner,+1 330-800-3828,sales@truebluetech.net,http://www.truebluetech.net
"Avrem Technologies, LLC3CX Bronze Partner",+1 330-259-7399,info@avrem.com,http://www.avrem.com
Bonzai Pipeline3CX Bronze Partner,+1 216-324-9600,greg@bonzaipipeline.net,http://www.bonzaipipeline.net
ComputeRXpress3CX Bronze Partner,+1 513-295-1813,spollak@computerxpress.com,http://www.computerxpress.com
IntelliPoint Technologies3CX Bronze Partner,+1 304-733-3687,accounting@intellipoint.net,http://www.intellipoint.net
IT Support Specialists3CX Bronze Partner,+1 216-771-1600,wbarlock@itsupportspecialists.net,https://www.itsupportspecialists.net
Manifest Solutions3CX Bronze Partner,+1 614-930-2888,support@manifestcorp.com,https://manifestcorp.com
Meyer Hill Lynch Corporation3CX Bronze Partner,+1 419-897-9797,jklar@mhl.com,http://www.mhl.com
Mobile Technical Services3CX Bronze Partner,+1 937-206-6475,andy@mobiletekservice.com,http://www.mobiletekservice.com
Netpoint Consulting3CX Bronze Partner,+1 419-612-3552,bob@netpointconsulting.net,http://www.netpointconsulting.net
PCR Business Systems3CX Bronze Partner,+1 330-342-0981,shaun@pcrbusiness.com,http://www.pcrbusiness.com
Premium Computer Systems3CX Bronze Partner,+1 440-949-3094,bill@premiumcomputer.cc,http://www.premiumcomputer.cc
Synced Consulting LLC3CX Bronze Partner,+1 740-622-3347,andrew@syncedconsulting.com,http://www.syncedconsulting.com
TCG Communications3CX Bronze Partner,+1 513-795-0339,floyd.wagers@tcgcommunications.net,http://www.tcgcommunications.net
TR I.T.Group3CX Bronze Partner,+1 216-510-0961,cvedrody@tritg.com,http://www.tirtg.com
Trident Solutions3CX Bronze Partner,+1 614-319-4681,bprimm@3ctechs.com,http://www.3ctechs.com
Voyant Technology3CX Bronze Partner,+1 216-455-0545,corey@voyanttechnology.com,http://www.voyanttechnology.com
Yoder Micro3CX Bronze Partner,+1 330-204-0992,yodermicro@gmail.com,
"SPARK I/T Services, LLC3CX Platinum Partner",+1 918-608-8888,sales@sparkitservices.com,https://sparkservices.net
Jackson Technical3CX Gold Partner,+1 918-585-8324,phones@jacksontechnical.com,http://www.JacksonTechnical.com
"R.K. Black, Inc.3CX Gold Partner",+1 855-242-1343,nschones@rkblack.com,http://www.rkblack.com
Tech Evolutions3CX Gold Partner,+1 888-247-1869,kevin@techevolutions.com,http://www.techevolutions.com
"3Nines Technologies, Inc.3CX Silver Partner",+1 405-488-8000,terrys@3ninestech.com,http://www.3ninestech.com
Made In Oklahoma3CX Silver Partner,+1 405-253-6411,thisisken2000@hotmail.com,http://madeinoklahoma.com
Netlink Solutions3CX Silver Partner,+1 918-893-9522,jaday@nlsit.com,http://www.nlsit.com
SkyHelm3CX Silver Partner,+1 405-265-9415,erica.ruegge@skyhelm.com,https://www.skyhelm.com
Third Helix Technology Inc.3CX Silver Partner,+1 580-233-1125,barrettp@thirdhelix.com,http://www.thirdhelix.com
Tigunia3CX Silver Partner,+1 405-708-4249,bret@tigunia.com,https://tigunia.com
"Tulsa Data Consulting, LLC3CX Silver Partner",+1 918-978-5462,jim@tulsadc.com,http://www.tulsadc.com
Black Diamond IT Mgt Group3CX Bronze Partner,+1 405-340-8206,dfarmer@bdmgi.com,http://www.bditmg.com
"NSN Management, LLC3CX Bronze Partner",+1 918-770-7400,sean.fullerton@nsnmanagement.com,http://www.nsnmanagement.com
Cogent IT3CX Silver Partner,+1 503-924-3621,ed.guzman@cogentit.com,http://www.cogentit.com
Jefferson IT3CX Silver Partner,+1 541-821-2635,tlw@jeffersonit.com,http://www.jeffersonit.com
SecurePoint3CX Silver Partner,+1 971-600-1440,edecoster@securepointtech.com,http://www.securepointtech.com
Summit Communications3CX Silver Partner,+1 503-805-3041,greg.grunest@summitcommunications.com,https://www.summitcommunications.com
Tekmanagement3CX Silver Partner,+1 541-779-4777,scott@tekmanagement.com,http://www.tekmanagement.com
The Greater Eastern Oregon Network3CX Bronze Partner,+1 541-523-0270,zach@davispc.com,http://www.thegeo.net
"Bardissi Enterprises, LLC3CX Titanium Partner",+1 215-853-2266,gbardissi@bardissi.net,http://www.bardissi.net
"Clarity Technologies Group, LLC3CX Titanium Partner",+1 973-440-5811,3CXPBX@clarityscg.com,http://www.claritytg.com
"Jomar Technologies, Inc.3CX Titanium Partner",+1 888-445-6627,3cxsales@jomargreen.com,http://jomar.us
Business Information Group3CX Platinum Partner,+1 717-801-3887,mwaechter@4service.net,http://businessinformationgroup.com/
"Cross IT Services &amp; Solutions, LLC3CX Platinum Partner",+1 724-646-1760,johnr@crossit.com,http://www.crossit.com
N-Mesh Technologies3CX Platinum Partner,+1 724-204-1760,bud@nmeshtech.com,http://www.nmeshtech.com/hosted-solutions/hosted-voip/
"A. F. Daniel Technology Group, Inc3CX Gold Partner",+1 610-441-7222,service@afdaniel.com,https://www.afdaniel.com/3cx-phone-system/
"CompassMSP, LLC.3CX Gold Partner",+1 305-444-0109,wsanchez@compassmsp.com,http://www.compassmsp.com/
LVTech LLC3CX Gold Partner,+1 724-953-0300,ndorazio@lvtech.net,http://www.lvtech.net
MB ICT Solutions LLC3CX Gold Partner,+1 484-401-6331,Michael.Bird@MBICTSolutions.onmicrosoft.com,
SōtirIS3CX Gold Partner,+1 717-791-5242,Mark.Wilson@sotiris.com,http://www.sotiris.com
Vox Tandem LLC3CX Gold Partner,+1 920-663-0313,sales@voxtandem.com,http://www.voxtandem.com
1SEO Technologies Inc3CX Silver Partner,+1 267-554-7070,sfcasni@1seotech.com,http://www.1seotech.com
Design Data Corporation3CX Silver Partner,+1 717-295-9712,bsantiago@designdatacorp.com,http://www.ddco.com
KC &amp; Company3CX Silver Partner,+1 717-431-5054,kurt@kccompany.net,http://www.kccompany.net
"Managed IT Force, LLC3CX Silver Partner",+1 724-473-3950,dnorman@manageditforce.com,http://www.managedITforce.com
Northshore Technological Inc.3CX Silver Partner,+1 814-835-0163,JKauffman@northshoretech.net,http://www.northshoretech.net
Precision Business Solutions3CX Silver Partner,+1 814-471-0206,support@precisionbs.com,http://precisionbs.com
"Prismworks Technology, Inc.3CX Silver Partner",+1 717-566-8100,mcrescenzi@prismworks.net,http://www.prismworks.net
"Quality Computer Services, Inc.3CX Silver Partner",+1 412-828-0674,bknochel@computercalm.net,http://www.computercalm.net
Sierra Experts3CX Silver Partner,+1 412-722-0707,MSokolowski@SierraExperts.com,http://www.SierraExperts.com
Telephony Depot3CX Silver Partner,+1 215-825-8710,debbi.ferraro@telephonydepot.com,http://www.telephonydepot.com
Xander Communications3CX Silver Partner,+1 267-737-8000,justin@xandercom.com,http://xandercom.com
Barden Technology3CX Bronze Partner,+1 855-648-1760,john@bardentech.com,http://www.bardentech.com/
EZSolution3CX Bronze Partner,+1 717-291-0370,brad@ezsolution.com,http://www.ezcomputersolutions.com
LANspeed Technologies3CX Bronze Partner,+1 814-479-8006,jasonj@lanspeedtechnologies.com,http://www.lanspeedtechnologies.com
"Laughing Rock Technology, LLC3CX Bronze Partner",+1 610-678-1978,craig@laughingrock.com,http://www.laughingrock.com/
Preferred IT Solutions LLC3CX Bronze Partner,+1 412-517-6777,john@preferreditsolutions.com,http://www.preferreditsolutions.com
Reeves Information Technology3CX Bronze Partner,+1 724-589-5450,david.reeves@reevesinfotech.com,http://www.reevesinfotech.com
Six S Partners3CX Bronze Partner,+1 610-813-2537,tim.ellis@sixspartners.com,http://www.trigemco.com/
"Susquehanna Computer Innovations, Inc.3CX Bronze Partner",+1 570-323-0089,tim.heitzman@sciatwork.com,https://sciatwork.com/solutions/phone-systems/
Unconventional LLC3CX Bronze Partner,+1 724-567-8575,chad@getuit.net,http://www.getuit.net
NETiMAGE3CX Platinum Partner,+1 203-242-1111,sales@netimage.net,http://www.netimage.net
"Two Port Support, LLC3CX Platinum Partner",+1 860-422-4600,neil@twoportsupport.com,http://www.twoportsupport.com
"Converged Networks, LLC3CX Platinum Partner",+1 843-571-6400,mduck@convergednetworks.com,http://www.convergednetworks.com/
IronLogix3CX Gold Partner,+1 803-454-6255,mike@ironlogix.com,https://www.ironlogix.com/phone-systems
Carolina Computer Partners3CX Silver Partner,+1 704-549-0125,slucas@ccpteam.com,http://www.ccpteam.com
"Foothillsdata Consultants, Inc.3CX Silver Partner",+1 864-420-5243,jmoyer@foothillsdata.net,http://www.foothillsdata.net/
"Kotori Technologies, LLC3CX Silver Partner",+1 843-553-8800,info@kotoritechnologies.com,https://www.kotoritechnologies.com
Network Certified Professionals3CX Silver Partner,+1 843-606-6255,jim@netcertpro.com,http://netcertpro.com
"The Solution Stores, Inc.3CX Silver Partner",+1 843-921-2020,randy@thesolutionstore.com,http://www.thesolutionstore.com
Asset Technology Group3CX Bronze Partner,+1 843-534-5000,blynch@acsmsp.com,https://www.assettg.com/
Carolina IT3CX Bronze Partner,+1 843-689-3009,kevin@carolinaIT.com,
Custom Cloud Solutions LLC3CX Bronze Partner,+1 803-353-4632,matt@gocustomcloud.com,http://www.gocustomcloud.com
Telecom Cost Solutions3CX Silver Partner,+1 605-368-2727,jeffhind@fortcs1.com,http://www.fortcs1.com
Direct Automation3CX Bronze Partner,+1 605-977-3377,michaelp@direct-automation.com,http://www.direct-automation.com
"Leap Networks, Inc.3CX Platinum Partner",+1 615-235-5327,chris@leapnetworks.net,http://www.leapnetworks.net
Pioneer Technology3CX Platinum Partner,+1 423-777-5518,mikew@pioneerit.com,https://www.pioneerit.com
"Technology in Motion, LLC3CX Platinum Partner",+1 615-656-8630,wade@technmotion.com,http://www.technmotion.com
DPC Inc.3CX Gold Partner,+1 731-642-8627,philip@dpc-paris.com,http://www.dpc-paris.com
IT Decisions3CX Gold Partner,+1 423-282-0802,dsluder@itdec.com,http://www.itdec.com
Final Source3CX Silver Partner,+1 901-737-6140,mdawoud@finalsource.com,https://www.finalsource.com
"GT Innovation, Inc.3CX Silver Partner",+1 901-385-2372,mike@gtinnovation.com,http://www.gtinnovation.com/
i4C Solutions3CX Silver Partner,+1 865-947-4427,ddavis@i4cs.com,http://www.i4csolutions.com
InfoTech Healthcare LLC3CX Silver Partner,+1 615-778-8804,john@infotechtn.com,http://www.infotechtn.com
Office Technologies3CX Silver Partner,+1 423-619-1184,richard@officetechtn.com,http://officetechtn.com
"OGNTech, LLC3CX Silver Partner",+1 901-300-7955,office@ogntech.com,https://www.ogntech.com
Olive Tech Systems3CX Silver Partner,+1 901-237-5541,brian@olivetechsystems.com,http://www.OliveTechSystems.com
"System Integrations, Inc.3CX Silver Partner",+1 615-449-2944,dledford@system-integrations.com,http://www.system-integrations.com
"Cage Cube Technologies, Inc.3CX Bronze Partner",+1 423-484-0365,tom.herbert@cagecube.com,http://www.cagecube.com
Carnes Group LLC3CX Bronze Partner,+1 615-656-8323,ecarnes@carnesgroup.com,http://www.carnesgroup.com
"FTL Technology, LLC3CX Bronze Partner",+1 866-483-8506,jholbrook@itftl.com,https://itftl.com
"NetX, LLC3CX Bronze Partner",+1 901-682-0137,jjames@netxmemphis.com,http://www.netxmemphis.com
Austen Consultants3CX Platinum Partner,+1 817-989-6400,matt@austen-it.com,http://www.austen-it.com
Avinext3CX Platinum Partner,+1 979-595-2779,bates@Avinext.com,http://www.avinext.com
CAMS Bluewire Technology3CX Platinum Partner,+1 346-800-3199,jimmy@bluewiretech.com,http://www.bluewiretech.com
CTO Telecom3CX Platinum Partner,+1 972-546-3730,info@ctotelecom.com,http://www.ctotelecom.com
Houston TechSys LLC3CX Platinum Partner,+1 281-231-2944,ronnieb@houstontechsys.net,http://www.houstontechsys.net
Responsive Services International Corp3CX Platinum Partner,+1 806-763-1586,chris@responsive-services.com,http://www.responsive-services.com
The Telecom Spot3CX Platinum Partner,+1 972-334-9622,jerel@thetelecomspot.com,http://www.thetelecomspot.com
210 IT3CX Gold Partner,+1 210-499-0681,info@210it.com,http://www.210it.com
"ABYX Business Systems, Inc.3CX Gold Partner",+1 210-223-2299,efraim@abyxusa.com,http://www.abyxusa.com
Bryant PC Solutions3CX Gold Partner,+1 830-214-2339,ebryant@bryantpcsolutions.com,http://www.bryantpcsolutions.com
Corporate Technology Consultants3CX Gold Partner,+1 972-395-5395,sales@ctctx.com,http://www.ctctx.com
CRSA Technologies3CX Gold Partner,+1 210-390-3700,service@crsatech.com,http://www.crsatech.com
"Elite Systems, Inc.3CX Gold Partner",+1 469-441-5535,tready@elitesys.net,http://www.elitesys.net
"Etapmus, Inc.3CX Gold Partner",+1 469-608-7100,kkent@etapmus.com,http://www.etapmus.com
Featherston Media3CX Gold Partner,+1 800-560-2485,purchasing@featherstonmedia.com,http://www.featherstonmedia.com
INNICOM3CX Gold Partner,+1 844-277-0890,Support@innicom.com,http://innicom.com
IT Assurance3CX Gold Partner,+1 503-893-4265,Zac@itassurance.com,http://itassurance.com
"PCnet, LP3CX Gold Partner",+1 940-322-9990,nrbenz@wfpcnet.com,http://www.wfpcnet.com
"Straight Edge Technology, Inc.3CX Gold Partner",+1 361-653-1777,support@straightedgetech.com,http://www.straightedgetech.com
Technifax Office Solutions3CX Gold Partner,+1 972-478-2800,danderson@technifaxdfw.com,http://www.technifaxdfw.com
"Willits Technologies, Inc.3CX Gold Partner",+1 281-333-2505,steve@wti.cc,http://www.wti.cc
1SimplePhone3CX Silver Partner,+1 469-320-1111,Sales@1simplephone.com,http://www.1simplephone.com
CAG IT3CX Silver Partner,+1 512-381-1337,itmanager@cagaustin.com,http://cagaustin.com
Coeo Solutions3CX Silver Partner,+1 312-940-2216,jderose@coeosolutions.com,http://www.coeosolutions.com
"Connected Right, LLC3CX Silver Partner",+1 214-432-0630,pstrayhorn@connectedright.com,http://connectedright.com
ECS Technologies3CX Silver Partner,+1 214-222-4444,brent.sutcliffe@ecsnetworks.com,http://www.ecs-technologies.com
Enstep Technology  Solutions3CX Silver Partner,+1 281-901-0091,brett@enstep.com,http://www.enstep.com
FS Comm3CX Silver Partner,+1 877-316-7290,ryan@synfone.net,https://www.synfone.net
"Heart of Texas Network Consultants, Inc3CX Silver Partner",+1 254-848-7100,pkothe@hotnc.com,http://www.hotnc.com/
"Internetwerx, Inc.3CX Silver Partner",+1 214-750-0944,purchasing@internetwerx.com,http://www.internetwerx.com
"IPacket Networks, LLC3CX Silver Partner",+1 214-989-3528,dheckman@ipacketnet.com,http://www.ipacketnet.com
"IT Enabled, LLC3CX Silver Partner",+1 936-225-3329,chris.smith@itenabled.com,https://itenabled.com
IT Network Specialists3CX Silver Partner,+1 903-884-6380,it@itnetspec.com,https://www.itnetspec.com
Lambdin IT Consultants3CX Silver Partner,+1 432-262-2172,jack@wtx-consulting.com,http://www.wtx-consulting.com/
M Tech Consulting LLC3CX Silver Partner,+1 432-203-9500,michael@m-techllc.com,http://www.m-techllc.com
MARJEN Technology Group LLC3CX Silver Partner,+1 817-471-1234,rcroager@marjentech.com,http://www.marjentech.com
N2 Tech Solution LLC3CX Silver Partner,+1 956-335-4795,lneblett@n2techsolution.com,http://www.n2techsolution.com
Nehring Technology3CX Silver Partner,+1 254-434-4081,justin@nehringtechnology.com,https://www.nehringtechnology.com
Netswork3CX Silver Partner,+1 432-242-3700,billy@netswork.us,http://www.netswork.us
Networking Results3CX Silver Partner,+1 817-575-6230,RCollins@networkingresults.com,http://www.networkingresults.com
Oversee My IT3CX Silver Partner,+1 817-886-2400,jskinner@overseemyit.com,http://www.overseemyit.com
Paradigm Technologies3CX Silver Partner,+1 806-268-3403,twelch@p-technologies.com,http://www.p-technologies.com
PC &amp; Network Consulting3CX Silver Partner,+1 707-570-1180,dave@pcnetconsult.com,http://www.pcnetconsult.com
Pit Crew Technologies3CX Silver Partner,+1 210-547-0305,eric@pitcrewit.com,http://www.pitcrewit.com
Preeminent Technology LLC3CX Silver Partner,+1 214-306-6915 ext.,sales@pmtt.us,http://www.pmtt.us
Simpatico Systems3CX Silver Partner,+1 214-269-0266,kevin.kirkland@simpat.co,https://simpaticosystems.com/
Smart Office USA3CX Silver Partner,+1 214-272-0921,rbliss@smartofficeusa.com,http://www.smartofficeusa.com
"Spring I.T. Services, LLC3CX Silver Partner",+1 713-412-0992,amin@springitservices.com,http://www.springitservices.com
StormPrime3CX Silver Partner,+1 972-573-4925,mmcclintock@stormprime.com,http://www.stormprime.com/
Technigogo Technology Services LLC3CX Silver Partner,+1 512-940-0449,steve@technigogo.com,https://www.technigogo.com
USTI3CX Silver Partner,+1 512-670-8877,brady@usti.tech,https://www.usti.tech
Versa-Tek3CX Silver Partner,+1 800-401-8218,info@versa-tek.net,https://www.versa-tek.net
Vintage IT Services3CX Silver Partner,+1 512-481-1117,jsmith@vintageits.com,http://www.vintageits.com
"Webatron Internet Solutions, Inc.3CX Silver Partner",+1 915-613-1304,jpineira@webatron.biz,http://www.webatron.net
3545 Consulting3CX Bronze Partner,+1 713-789-3323,acruz@3545consulting.com,http://www.3545consulting.com
"ANTS-Technology, Inc.3CX Bronze Partner",+1 972-524-2145,terry@ants-technology.com,http://www.ANTS-Technology.com
BP Consulting3CX Bronze Partner,+1 806-577-4646,brad.phipps@b-p-consulting.com,http://b-p-consulting.com
ChaceTech3CX Bronze Partner,+1 832-326-0856,ferrell@chacetech.com,http://www.chacetech.com
CiraConnect3CX Bronze Partner,+1 214-269-2509,chris.haney@ciraconnect.com,http://www.ciraconnect.com
"Creative Digital Inc., dba CDi Computers3CX Bronze Partner",+1 817-517-7696,lant@cdi-computers.com,http://www.cdi-computers.com
DataMax3CX Bronze Partner,+1 501-603-3000,Mmanos@datamax-lr.com,https://www.datamaxarkansas.com/
DataProtect Group LLC3CX Bronze Partner,+1 214-699-8844,partner@dataprotectgroup.com,http://www.dataprotectgroup.com
"DFS, Inc.3CX Bronze Partner",+1 713-864-1966,dave@dfscompanies.com,http://www.dfscompanies.com
DFW Computer Guys3CX Bronze Partner,+1 214-552-0776,adamfann12@gmail.com,http://www.dfwcg.com
Enterprise Technology3CX Bronze Partner,+1 214-236-5223,pwoods1264@gmail.com,
Farsight Voice Data Solutions3CX Bronze Partner,+1 432-335-0879,greg.wood@farsightvds.com,http://www.farsightvds.com
IT BY Spectrum3CX Bronze Partner,+1 866-933-5557,kyle@itbyspectrum.com,https://www.itbyspectrum.com/
Masser Technologies3CX Bronze Partner,+1 915-613-1211,hmasser@massertechnologies.com,http://www.massertechnologies.com
Netcom3CX Bronze Partner,+1 972-428-5111,djm@netcom-usa.com,http://www.netcom-usa.com
NeTex Consulting3CX Bronze Partner,+1 903-600-6389,sales@netexconsult.com,https://www.netexconsult.com
Plains Internet3CX Bronze Partner,+1 806-410-3153,joseph.w@plainsinternet.com,http://www.plainsinternet.com/
RusTECH3CX Bronze Partner,+1 844-787-8324,wreynolds@rustechsolutions.net,https://www.rustechsolutions.com
SBS Proactive LLC3CX Bronze Partner,+1 817-834-0364,info@sbsproactive.com,http://www.sbsproactive.com
Tech Experts LLC.3CX Bronze Partner,+1 281-827-7470,nad@expertshouston.net,http://www.expertshouston.com
Tech-Mar Enterprises LLC3CX Bronze Partner,+1 281-224-1967,bmarino@tech-mar.com,http://www.tech-mar.com
"Telecom Vision, Inc. (DBA Technov, Inc.)3CX Bronze Partner",+1 972-234-3434 ext.,jr@technov.us,http://www.technov.us
ThirtySixteen Group3CX Bronze Partner,+1 214-367-1019,sales@thirtysixteen.com,http://thirtysixteen.com
Variatech3CX Bronze Partner,+1 832-473-6031,bryan@variatech.com,http://www.variatech.com
abpTECH3CX Gold Distributor,+1 972-831-1600,3cxsales@abptech.com,http://www.abptech.com
Eminent Technical Solutions LLC3CX Gold Partner,+1 801-499-3608,jacob@etscorp.com,http://www.etscorp.com
AnchorSix3CX Silver Partner,+1 801-225-3800,cmoss@anchorsix.com,http://www.anchorsix.com
Computer Solutions3CX Silver Partner,+1 801-990-1070,scoleman@csolutions.net,http://www.csolutions.net
E-tek3CX Silver Partner,+1 801-645-3835,jeremy@e-tekllc.com,http://www.e-tekllc.com
IT Unite Technologies3CX Silver Partner,+1 801-889-1414,roger@itunite.com,http://www.itunite.com
AllTech3CX Bronze Partner,+1 435-557-3232,orders@askalltech.com,http://www.askalltech.com
Blue Rim Networks3CX Bronze Partner,+1 435-938-5512,jperschon@bluerim.net,http://www.bluerimnetworks.com/
"CGM Technologies, LLC3CX Platinum Partner",+1 603-329-7253,cmccune@cgmtech.com,http://www.cgmtech.com
Open Approach3CX Bronze Partner,+1 802-242-4050,oanotifications@openapproach.com,http://www.openapproach.com/
ACC Telecom3CX Titanium Partner,+1 410-995-0101,bhunt@acctelecom.com,https://www.acctelecom.com
Ahoy Telecom3CX Platinum Partner,+1 540-328-1300,sales@ahoytel.com,http://www.ahoytel.com
Global CTI3CX Platinum Partner,+1 703-932-5100,Rkaddissi@global-cti.com,http://www.global-cti.com
TSI3CX Platinum Partner,+1 703-596-0022,support@tsiva.com,http://www.tsiva.com
"Access Technology, Inc.3CX Gold Partner",+1 804-320-8399,ken@richmonder.com,http://www.i-c.net
"Network Alliance, Inc.3CX Gold Partner",+1 703-715-4930,voipsupport@networkalliance.net,http://www.networkalliance.com
TechClarity LLC3CX Gold Partner,+1 703-962-7000,jadler@techclarity.com,http://www.techclarity.com
Cirnovus3CX Silver Partner,+1 540-818-2534,tfloyd@cirnovus.com,http://cirnovus.com
"eResources, LLC3CX Silver Partner",+1 202-216-0124,orders@itondemand.com,http://www.eresources.com
FATECH INTERNATIONAL LLC3CX Silver Partner,+1 703-962-1759,cs@fatech.net,http://www.fatech.net
Infinity Technologies3CX Silver Partner,+1 540-548-0908,jtench@it-va.com,http://www.it-va.com
"IT3TEK, Inc.3CX Silver Partner",+1 540-699-8982,thomas.obrien@it3tek.com,https://www.it3tek.com
"Netmaker Communications, LLC3CX Silver Partner",+1 540-431-4901,sales@ucnetmaker.net,http://www.ucnetmaker.net
Harmon Voice Solution3CX Bronze Partner,+1 703-794-0444,tharrison@harmonvoice.com,http://www.harmonvoice.com/
Hurd I/T Communications3CX Bronze Partner,+1 703-442-3422,jhurd@hurdit.com,http://www.hurdit.com
Netwavz3CX Bronze Partner,+1 757-695-8440,bmanley@netwavz.com,http://www.netwavz.com
"Windstar Technologies, Inc3CX Bronze Partner",+1 540-829-7827,dgroot@windstartech.com,http://www.windstartech.com
Avaunt Technologies Inc.3CX Gold Partner,+1 253-777-3030,sales@avaunt.com,http://www.avaunt.com
RADCOMP Technologies3CX Gold Partner,+1 866-490-2426,help@radcomp.com,http://www.gorad.com
Agile Technical Services Inc3CX Silver Partner,+1 425-484-0700,patrick@agiletechs.com,http://www.agiletechs.com
Exbabylon IT Solutions3CX Silver Partner,+1 509-447-0440,elijah@exbabylon.com,http://www.exbabylon.com
Help Desk Cavalry3CX Silver Partner,+1 360-930-6991,Biz@hdcav.com,http://www.helpdeskcavalry.com
Lighthouse Consulting3CX Silver Partner,+1 206-466-5200,partner@lhseattle.com,http://www.lhseattle.com
NW Technology3CX Silver Partner,+1 360-384-6987,ryanoord@nwtechnology.com,http://www.nwtechnology.com/voip-phones/
Olds Group3CX Silver Partner,+1 206-550-9203,marko@oldsgroup.com,http://www.oldsgroup.com
BoldTech Solutions3CX Bronze Partner,+1 360-718-3450,jeff.bolden@boldtechsolutions.com,http://www.boldtechsolutions.com
Cavu Networks3CX Bronze Partner,+1 206-866-5340,john@cavunetworks.com,http://www.cavunetworks.com
"Fallon Technology, Inc.3CX Bronze Partner",+1 509-548-4100,rf@fallonts.com,http://www.fallonts.com
RHYNO Networks3CX Bronze Partner,+1 855-749-6648,sales@rhynonetworks.com,http://www.rhynonetworks.com
Technological Solutions LLC3CX Bronze Partner,+1 509-438-2009,joshua.white@tsho.us,http://www.complete-it.us
Simplified IT Solutions3CX Gold Partner,+1 304-546-3786,Josh@simplifiedit.us,http://www.simplifiedit.us
Literati Information Technology3CX Bronze Partner,+1 304-296-8026,hburton@literatiit.com,http://www.literatiit.com
"3Fold IT, LLC3CX Platinum Partner",+1 262-836-3030,Inquiries@3FoldIT.com,http://www.3foldit.com/solutions/3cx-phone-systems/
"DiMAX Office Solutions, Inc3CX Platinum Partner",+1 608-442-1100,aaronf@dimaxusa.com,http://www.maxlinkusa.com
TriTech Corporation of America/IPPHONE WAREHOUSE3CX Platinum Partner,+1 888-201-9056,service@ipphone-warehouse.com,https://www.ipphone-warehouse.com/3cx-s/1056.htm
"Clarity Technology Group, Inc.3CX Gold Partner",+1 608-258-4500,billyt@claritytech.com,http://www.claritytech.com
CorePCS3CX Gold Partner,+1 414-727-1240,alex@corepcs.com,http://www.coretechmke.com
"NEW Integrated Technologies, Inc.3CX Gold Partner",+1 920-965-1121,earl@newitech-inc.com,http://www.newitechinc.com
One Click Inc3CX Gold Partner,+1 414-800-1002,chad@oneclickwi.com,http://www.oneclickwi.com
Premier Technologies3CX Gold Partner,+1 608-361-1000,jbetz@premier-technologies.com,http://www.premier-technologies.com
"VoIPTools, LLC3CX Gold Partner",+1 801-642-4655,matthew.orr@voiptools.com,http://www.voiptools.com
AIR Technology Services3CX Silver Partner,+1 262-432-1632,jack@getair.us,http://www.airtechnologyservices.com
Caspian Technology Concepts3CX Silver Partner,+1 262-314-4100,dboehm@thinkcaspian.com,http://thinkcaspian.com/
Chaney Systems Inc3CX Silver Partner,+1 262-679-6000,chrisc@chaney.net,http://www.chaney.net
"Flex Technology Group, LLC.3CX Silver Partner",+1 920-264-0533,support@flextechgroup.com,https://flextechgroup.com
Glassen Technology Solutions3CX Silver Partner,+1 262-806-7286,curtis@glassen.net,http://www.glassen.net
Ideal Technologies3CX Silver Partner,+1 920-415-3466,info@idealtechwi.com,http://www.idealtechwi.com
"Petsche Consulting, LLC3CX Silver Partner",+1 920-968-5313,tim@petscheconsulting.com,http://www.petscheconsulting.com
Stamm Technologies3CX Silver Partner,+1 414-263-4260,ckalupa@stammtech.com,https://www.stammbt.com/
Dynamite Cloud Inc3CX Bronze Partner,+1 888-909-4191,scott@dynamitecloud.com,http://www.dynamitecloud.com
Sprinter IT3CX Bronze Partner,+1 715-551-6464,VOIP@sprinterit.com,http://www.sprinterit.com
"Wire Technologies, Inc3CX Bronze Partner",+1 920-766-5172,rschuster@wiretech-inc.com,http://WWW.WIRETECH-INC.COM
RT Communications Inc.3CX Gold Partner,+1 307-347-7000,pbx@rtcom.net,http://www.rtcom.net
